EESchema Schematic File Version 4
EELAYER 30 0
EELAYER END
$Descr A4 11693 8268
encoding utf-8
Sheet 1 1
Title ""
Date ""
Rev ""
Comp ""
Comment1 ""
Comment2 ""
Comment3 ""
Comment4 ""
$EndDescr
$Comp
L Device:R R7
U 1 1 5FFB4E43
P 3250 3950
F 0 "R7" V 3150 3850 50  0000 C CNN
F 1 "10k" V 3150 4050 50  0000 C CNN
F 2 "Resistor_SMD:R_0805_2012Metric_Pad1.20x1.40mm_HandSolder" V 3180 3950 50  0001 C CNN
F 3 "~" H 3250 3950 50  0001 C CNN
	1    3250 3950
	0    1    1    0   
$EndComp
$Comp
L Device:R R6
U 1 1 5FFB9B4C
P 3250 2750
F 0 "R6" V 3150 2650 50  0000 C CNN
F 1 "10k" V 3150 2850 50  0000 C CNN
F 2 "Resistor_SMD:R_0805_2012Metric_Pad1.20x1.40mm_HandSolder" V 3180 2750 50  0001 C CNN
F 3 "~" H 3250 2750 50  0001 C CNN
	1    3250 2750
	0    1    1    0   
$EndComp
$Comp
L Device:R R8
U 1 1 5FFB9EC1
P 3950 2750
F 0 "R8" V 3850 2650 50  0000 C CNN
F 1 "100k" V 3850 2850 50  0000 C CNN
F 2 "Resistor_SMD:R_0805_2012Metric_Pad1.20x1.40mm_HandSolder" V 3880 2750 50  0001 C CNN
F 3 "~" H 3950 2750 50  0001 C CNN
	1    3950 2750
	0    1    1    0   
$EndComp
$Comp
L Device:R R9
U 1 1 5FFBA544
P 3950 3950
F 0 "R9" V 3850 3850 50  0000 C CNN
F 1 "100k" V 3850 4050 50  0000 C CNN
F 2 "Resistor_SMD:R_0805_2012Metric_Pad1.20x1.40mm_HandSolder" V 3880 3950 50  0001 C CNN
F 3 "~" H 3950 3950 50  0001 C CNN
	1    3950 3950
	0    -1   -1   0   
$EndComp
$Comp
L Connector_Generic:Conn_01x04 J1
U 1 1 5FFBEB34
P 1150 3400
F 0 "J1" H 1068 2975 50  0000 C CNN
F 1 "Conn_01x04" H 1150 3100 50  0000 C CNN
F 2 "Connector_PinHeader_2.54mm:PinHeader_1x04_P2.54mm_Vertical" H 1150 3400 50  0001 C CNN
F 3 "~" H 1150 3400 50  0001 C CNN
	1    1150 3400
	-1   0    0    1   
$EndComp
$Comp
L power:GND #PWR01
U 1 1 5FFBFA48
P 1400 3650
F 0 "#PWR01" H 1400 3400 50  0001 C CNN
F 1 "GND" H 1405 3477 50  0000 C CNN
F 2 "" H 1400 3650 50  0001 C CNN
F 3 "" H 1400 3650 50  0001 C CNN
	1    1400 3650
	1    0    0    -1  
$EndComp
Wire Wire Line
	1350 3500 1400 3500
Wire Wire Line
	1400 3500 1400 3650
Wire Wire Line
	2900 2750 3100 2750
Wire Wire Line
	1350 3300 1700 3300
Wire Wire Line
	1350 3400 1700 3400
Wire Wire Line
	2900 3950 3100 3950
Wire Wire Line
	3550 3450 3650 3450
Wire Wire Line
	3650 3250 3550 3250
$Comp
L power:GND #PWR04
U 1 1 5FFC17E4
P 4350 4000
F 0 "#PWR04" H 4350 3750 50  0001 C CNN
F 1 "GND" H 4355 3827 50  0000 C CNN
F 2 "" H 4350 4000 50  0001 C CNN
F 3 "" H 4350 4000 50  0001 C CNN
	1    4350 4000
	1    0    0    -1  
$EndComp
Wire Wire Line
	4250 3350 4350 3350
Wire Wire Line
	4350 2750 4100 2750
Wire Wire Line
	1400 3200 1350 3200
$Comp
L Amplifier_Operational:LMV324 U1
U 4 1 5FFBD67D
P 2550 3950
F 0 "U1" H 2550 4317 50  0000 C CNN
F 1 "LMV324" H 2550 4226 50  0000 C CNN
F 2 "Package_SO:SO-14_3.9x8.65mm_P1.27mm" H 2500 4050 50  0001 C CNN
F 3 "http://www.ti.com/lit/ds/symlink/lmv324.pdf" H 2600 4150 50  0001 C CNN
F 4 "2463665" H 2550 3950 50  0001 C CNN "Farnell Ref"
	4    2550 3950
	1    0    0    1   
$EndComp
$Comp
L Device:R_POT RV1
U 1 1 5FFBBE08
P 2900 3350
F 0 "RV1" H 2830 3396 50  0000 R CNN
F 1 "10k" H 2830 3305 50  0000 R CNN
F 2 "Potentiometer_THT:Potentiometer_Bourns_3006P_Horizontal" H 2900 3350 50  0001 C CNN
F 3 "http://www.farnell.com/datasheets/1815131.pdf" H 2900 3350 50  0001 C CNN
F 4 "9352430" H 2900 3350 50  0001 C CNN "Farnell Ref"
	1    2900 3350
	1    0    0    -1  
$EndComp
Wire Wire Line
	2900 3150 3050 3150
Wire Wire Line
	3050 3150 3050 3350
Wire Wire Line
	2900 3200 2900 3150
$Comp
L Device:R R5
U 1 1 5FFCB19E
P 2900 3750
F 0 "R5" H 2800 3650 50  0000 C CNN
F 1 "100k" H 2750 3750 50  0000 C CNN
F 2 "Resistor_SMD:R_0805_2012Metric_Pad1.20x1.40mm_HandSolder" V 2830 3750 50  0001 C CNN
F 3 "~" H 2900 3750 50  0001 C CNN
	1    2900 3750
	-1   0    0    1   
$EndComp
$Comp
L Device:R R4
U 1 1 5FFCBFAE
P 2900 2950
F 0 "R4" H 2800 2850 50  0000 C CNN
F 1 "100k" H 2750 2950 50  0000 C CNN
F 2 "Resistor_SMD:R_0805_2012Metric_Pad1.20x1.40mm_HandSolder" V 2830 2950 50  0001 C CNN
F 3 "~" H 2900 2950 50  0001 C CNN
	1    2900 2950
	-1   0    0    1   
$EndComp
Wire Wire Line
	2850 3950 2900 3950
Wire Wire Line
	2900 3950 2900 3900
Wire Wire Line
	2900 3600 2900 3550
Wire Wire Line
	2900 3150 2900 3100
Connection ~ 2900 3150
Wire Wire Line
	2900 2800 2900 2750
Wire Wire Line
	2900 2750 2850 2750
Wire Wire Line
	2250 2850 2200 2850
Wire Wire Line
	2200 2850 2200 3150
Wire Wire Line
	2200 3150 2900 3150
Wire Wire Line
	2900 3550 2200 3550
Wire Wire Line
	2200 3550 2200 3850
Wire Wire Line
	2200 3850 2250 3850
Connection ~ 2900 3550
Wire Wire Line
	2900 3550 2900 3500
Wire Wire Line
	4350 4000 4350 3950
Wire Wire Line
	4350 3950 4100 3950
Connection ~ 2900 2750
Connection ~ 2900 3950
Wire Wire Line
	3400 3950 3550 3950
Wire Wire Line
	3400 2750 3550 2750
Wire Wire Line
	3550 2750 3550 3250
Connection ~ 3550 2750
Wire Wire Line
	3550 2750 3800 2750
Wire Wire Line
	4350 2750 4350 2850
Wire Wire Line
	3550 3450 3550 3950
Connection ~ 3550 3950
Wire Wire Line
	3550 3950 3800 3950
Wire Wire Line
	1700 2650 2250 2650
Wire Wire Line
	1700 2650 1700 3300
Wire Wire Line
	2250 4050 1700 4050
Wire Wire Line
	1700 3400 1700 4050
Wire Wire Line
	5650 2950 5700 2950
Wire Wire Line
	5700 2950 5700 3350
$Comp
L Device:R_POT RV2
U 1 1 600130AA
P 5100 3350
F 0 "RV2" V 4985 3350 50  0000 C CNN
F 1 "10k" V 4894 3350 50  0000 C CNN
F 2 "Potentiometer_THT:Potentiometer_Bourns_3006P_Horizontal" H 5100 3350 50  0001 C CNN
F 3 "http://www.farnell.com/datasheets/1815131.pdf" H 5100 3350 50  0001 C CNN
F 4 "9352430" H 5100 3350 50  0001 C CNN "Farnell Ref"
	1    5100 3350
	0    -1   -1   0   
$EndComp
Text Notes 4950 4350 0    50   ~ 0
RES EN SERIE POT OFFSET
$Comp
L Device:R R10
U 1 1 600172CD
P 4700 2850
F 0 "R10" V 4600 2750 50  0000 C CNN
F 1 "10k" V 4600 2950 50  0000 C CNN
F 2 "Resistor_SMD:R_0805_2012Metric_Pad1.20x1.40mm_HandSolder" V 4630 2850 50  0001 C CNN
F 3 "~" H 4700 2850 50  0001 C CNN
	1    4700 2850
	0    1    1    0   
$EndComp
$Comp
L Device:R R11
U 1 1 60027F62
P 4600 3750
F 0 "R11" V 4500 3650 50  0000 C CNN
F 1 "10k" V 4500 3850 50  0000 C CNN
F 2 "Resistor_SMD:R_0805_2012Metric_Pad1.20x1.40mm_HandSolder" V 4530 3750 50  0001 C CNN
F 3 "~" H 4600 3750 50  0001 C CNN
	1    4600 3750
	0    1    1    0   
$EndComp
Wire Wire Line
	4850 3350 4950 3350
Connection ~ 4850 3350
Wire Wire Line
	4850 3050 5050 3050
Text Notes 3000 3450 0    50   ~ 0
GAIN 1
Text Notes 5200 3500 0    50   ~ 0
GAIN 2
$Comp
L Device:C C2
U 1 1 60043855
P 5250 3750
F 0 "C2" V 5100 3550 50  0000 C CNN
F 1 "1µF 10v" V 5100 3850 50  0000 C CNN
F 2 "Capacitor_SMD:C_0805_2012Metric_Pad1.18x1.45mm_HandSolder" H 5288 3600 50  0001 C CNN
F 3 "~" H 5250 3750 50  0001 C CNN
	1    5250 3750
	0    -1   -1   0   
$EndComp
Wire Wire Line
	5100 3750 4850 3750
Wire Wire Line
	4850 3750 4850 3350
Wire Wire Line
	5400 3750 5700 3750
Wire Wire Line
	5700 3750 5700 3350
Connection ~ 5700 3350
$Comp
L Connector_Generic:Conn_01x03 J2
U 1 1 6004A024
P 7900 3350
F 0 "J2" H 7980 3392 50  0000 L CNN
F 1 "Conn_01x03" H 7980 3301 50  0000 L CNN
F 2 "Connector_PinHeader_2.54mm:PinHeader_1x03_P2.54mm_Vertical" H 7900 3350 50  0001 C CNN
F 3 "~" H 7900 3350 50  0001 C CNN
	1    7900 3350
	1    0    0    1   
$EndComp
$Comp
L power:GND #PWR07
U 1 1 6004C7B7
P 7650 3500
F 0 "#PWR07" H 7650 3250 50  0001 C CNN
F 1 "GND" H 7655 3327 50  0000 C CNN
F 2 "" H 7650 3500 50  0001 C CNN
F 3 "" H 7650 3500 50  0001 C CNN
	1    7650 3500
	1    0    0    -1  
$EndComp
Wire Wire Line
	7650 3500 7650 3450
Wire Wire Line
	7650 3450 7700 3450
Wire Wire Line
	7700 3250 7650 3250
$Comp
L Device:C C1
U 1 1 6006341E
P 3750 1800
F 0 "C1" H 3850 1700 50  0000 C CNN
F 1 "1µF 10v" H 3750 1950 50  0000 C CNN
F 2 "Capacitor_SMD:C_0805_2012Metric_Pad1.18x1.45mm_HandSolder" H 3788 1650 50  0001 C CNN
F 3 "~" H 3750 1800 50  0001 C CNN
	1    3750 1800
	1    0    0    -1  
$EndComp
Wire Wire Line
	1750 1550 1750 1450
Wire Wire Line
	1750 1450 2050 1450
Wire Wire Line
	2350 1650 2350 1450
Connection ~ 2350 1450
Wire Wire Line
	2350 1450 2450 1450
$Comp
L power:GND #PWR02
U 1 1 60068226
P 2350 2050
F 0 "#PWR02" H 2350 1800 50  0001 C CNN
F 1 "GND" H 2355 1877 50  0000 C CNN
F 2 "" H 2350 2050 50  0001 C CNN
F 3 "" H 2350 2050 50  0001 C CNN
	1    2350 2050
	1    0    0    -1  
$EndComp
$Comp
L Device:R R1
U 1 1 60069F88
P 2050 1600
F 0 "R1" H 1900 1550 50  0000 C CNN
F 1 "6.8k" H 1900 1650 50  0000 C CNN
F 2 "Resistor_SMD:R_0805_2012Metric_Pad1.20x1.40mm_HandSolder" V 1980 1600 50  0001 C CNN
F 3 "~" H 2050 1600 50  0001 C CNN
	1    2050 1600
	-1   0    0    1   
$EndComp
Connection ~ 2050 1450
Wire Wire Line
	2050 1450 2350 1450
$Comp
L Device:R R2
U 1 1 6006B425
P 2050 1900
F 0 "R2" H 1900 1900 50  0000 C CNN
F 1 "10k" H 1900 2000 50  0000 C CNN
F 2 "Resistor_SMD:R_0805_2012Metric_Pad1.20x1.40mm_HandSolder" V 1980 1900 50  0001 C CNN
F 3 "~" H 2050 1900 50  0001 C CNN
	1    2050 1900
	-1   0    0    1   
$EndComp
Wire Wire Line
	2350 2050 2350 1850
Wire Wire Line
	2050 2050 2350 2050
Connection ~ 2350 2050
Connection ~ 2050 1750
Wire Wire Line
	1750 1850 1750 2050
Wire Wire Line
	1750 2050 2050 2050
Connection ~ 2050 2050
Connection ~ 1750 1450
Wire Wire Line
	7700 3350 5700 3350
$Comp
L Device:R R3
U 1 1 600610D3
P 2600 1450
F 0 "R3" V 2393 1450 50  0000 C CNN
F 1 "22" V 2484 1450 50  0000 C CNN
F 2 "Resistor_SMD:R_0805_2012Metric_Pad1.20x1.40mm_HandSolder" V 2530 1450 50  0001 C CNN
F 3 "~" H 2600 1450 50  0001 C CNN
	1    2600 1450
	0    1    1    0   
$EndComp
$Comp
L Amplifier_Operational:LMV324 U1
U 5 1 6009608E
P 3350 1750
F 0 "U1" H 3308 1796 50  0000 L CNN
F 1 "LMV324" H 3300 1700 50  0000 L CNN
F 2 "Package_SO:SO-14_3.9x8.65mm_P1.27mm" H 3300 1850 50  0001 C CNN
F 3 "http://www.ti.com/lit/ds/symlink/lmv324.pdf" H 3400 1950 50  0001 C CNN
F 4 "2463665" H 3350 1750 50  0001 C CNN "Farnell Ref"
	5    3350 1750
	1    0    0    -1  
$EndComp
Wire Wire Line
	1400 1450 1750 1450
$Comp
L Reference_Voltage:TL431D U2
U 1 1 600C0735
P 2350 1750
F 0 "U2" V 2396 1680 50  0000 R CNN
F 1 "TL431D" V 2305 1680 50  0000 R CNN
F 2 "Package_SO:SOIC-8_3.9x4.9mm_P1.27mm" H 2350 1500 50  0001 C CIN
F 3 "http://www.ti.com/lit/ds/symlink/tl431.pdf" H 2350 1750 50  0001 C CIN
	1    2350 1750
	0    -1   -1   0   
$EndComp
Wire Wire Line
	2050 1750 2250 1750
$Comp
L power:+5V #PWR05
U 1 1 600046C4
P 4350 3700
F 0 "#PWR05" H 4350 3550 50  0001 C CNN
F 1 "+5V" H 4365 3873 50  0000 C CNN
F 2 "" H 4350 3700 50  0001 C CNN
F 3 "" H 4350 3700 50  0001 C CNN
	1    4350 3700
	1    0    0    -1  
$EndComp
$Comp
L power:+5V #PWR0101
U 1 1 600F1C67
P 3250 1400
F 0 "#PWR0101" H 3250 1250 50  0001 C CNN
F 1 "+5V" H 3265 1573 50  0000 C CNN
F 2 "" H 3250 1400 50  0001 C CNN
F 3 "" H 3250 1400 50  0001 C CNN
	1    3250 1400
	1    0    0    -1  
$EndComp
$Comp
L Device:R R13
U 1 1 6013FAF8
P 7500 3250
F 0 "R13" V 7293 3250 50  0000 C CNN
F 1 "0" V 7384 3250 50  0000 C CNN
F 2 "Resistor_SMD:R_0805_2012Metric_Pad1.20x1.40mm_HandSolder" V 7430 3250 50  0001 C CNN
F 3 "~" H 7500 3250 50  0001 C CNN
	1    7500 3250
	0    1    1    0   
$EndComp
$Comp
L Device:C C3
U 1 1 6014DC4F
P 1750 1700
F 0 "C3" H 1850 1600 50  0000 C CNN
F 1 "1µF 10v" H 1750 1850 50  0000 C CNN
F 2 "Capacitor_SMD:C_0805_2012Metric_Pad1.18x1.45mm_HandSolder" H 1788 1550 50  0001 C CNN
F 3 "~" H 1750 1700 50  0001 C CNN
	1    1750 1700
	1    0    0    -1  
$EndComp
Wire Wire Line
	1400 1450 1400 3200
Wire Wire Line
	2750 1450 3250 1450
Connection ~ 3250 1450
Wire Wire Line
	3250 1450 3750 1450
Wire Wire Line
	2350 2050 3250 2050
Wire Wire Line
	3250 2050 3750 2050
Wire Wire Line
	3750 2050 3750 1950
Connection ~ 3250 2050
Wire Wire Line
	3750 1650 3750 1450
Wire Wire Line
	3250 1400 3250 1450
$Comp
L power:+5V #PWR0102
U 1 1 60187143
P 7300 3200
F 0 "#PWR0102" H 7300 3050 50  0001 C CNN
F 1 "+5V" H 7315 3373 50  0000 C CNN
F 2 "" H 7300 3200 50  0001 C CNN
F 3 "" H 7300 3200 50  0001 C CNN
	1    7300 3200
	1    0    0    -1  
$EndComp
Wire Wire Line
	7350 3250 7300 3250
Wire Wire Line
	7300 3250 7300 3200
$Comp
L Amplifier_Operational:LMV324 U1
U 1 1 5FFBAA42
P 3950 3350
F 0 "U1" H 3950 3717 50  0000 C CNN
F 1 "LMV324" H 3950 3626 50  0000 C CNN
F 2 "Package_SO:SO-14_3.9x8.65mm_P1.27mm" H 3900 3450 50  0001 C CNN
F 3 "http://www.ti.com/lit/ds/symlink/lmv324.pdf" H 4000 3550 50  0001 C CNN
F 4 "2463665" H 3950 3350 50  0001 C CNN "Farnell Ref"
	1    3950 3350
	1    0    0    1   
$EndComp
$Comp
L Amplifier_Operational:LMV324 U1
U 3 1 5FFBC641
P 2550 2750
F 0 "U1" H 2550 3117 50  0000 C CNN
F 1 "LMV324" H 2550 3026 50  0000 C CNN
F 2 "Package_SO:SO-14_3.9x8.65mm_P1.27mm" H 2500 2850 50  0001 C CNN
F 3 "http://www.ti.com/lit/ds/symlink/lmv324.pdf" H 2600 2950 50  0001 C CNN
F 4 "2463665" H 2550 2750 50  0001 C CNN "Farnell Ref"
	3    2550 2750
	1    0    0    -1  
$EndComp
Wire Wire Line
	4850 3050 4850 3350
Wire Wire Line
	5100 3200 5300 3200
Wire Wire Line
	5300 3200 5300 3350
Connection ~ 5300 3350
Wire Wire Line
	5300 3350 5250 3350
$Comp
L Amplifier_Operational:LMV324 U1
U 2 1 5FFBB7EC
P 5350 2950
F 0 "U1" H 5350 3250 50  0000 C CNN
F 1 "LMV324" H 5400 3150 50  0000 C CNN
F 2 "Package_SO:SO-14_3.9x8.65mm_P1.27mm" H 5300 3050 50  0001 C CNN
F 3 "http://www.ti.com/lit/ds/symlink/lmv324.pdf" H 5400 3150 50  0001 C CNN
F 4 "2463665" H 5350 2950 50  0001 C CNN "Farnell Ref"
	2    5350 2950
	1    0    0    -1  
$EndComp
Wire Wire Line
	4550 2850 4350 2850
Connection ~ 4350 2850
Wire Wire Line
	4350 2850 4350 3350
Wire Wire Line
	4850 2850 5050 2850
Wire Wire Line
	4750 3750 4850 3750
Connection ~ 4850 3750
Wire Wire Line
	4350 3750 4450 3750
Wire Wire Line
	4350 3750 4350 3700
Wire Wire Line
	5300 3350 5700 3350
$EndSCHEMATC
