%TF.GenerationSoftware,KiCad,Pcbnew,5.1.9-73d0e3b20d~88~ubuntu20.04.1*%
%TF.CreationDate,2021-03-13T18:53:44+01:00*%
%TF.ProjectId,StrainGaugeAmplifier,53747261-696e-4476-9175-6765416d706c,rev?*%
%TF.SameCoordinates,Original*%
%TF.FileFunction,Legend,Top*%
%TF.FilePolarity,Positive*%
%FSLAX46Y46*%
G04 Gerber Fmt 4.6, Leading zero omitted, Abs format (unit mm)*
G04 Created by KiCad (PCBNEW 5.1.9-73d0e3b20d~88~ubuntu20.04.1) date 2021-03-13 18:53:44*
%MOMM*%
%LPD*%
G01*
G04 APERTURE LIST*
%ADD10C,0.300000*%
%ADD11C,0.200000*%
%ADD12C,0.120000*%
%ADD13C,0.150000*%
G04 APERTURE END LIST*
D10*
X227584000Y-90424000D02*
X227330000Y-90170000D01*
X225552000Y-90424000D02*
X227584000Y-90424000D01*
X225806000Y-90678000D02*
X225552000Y-90424000D01*
X225806000Y-90170000D02*
X225552000Y-90424000D01*
X227584000Y-90424000D02*
X227330000Y-90678000D01*
X246380000Y-90678000D02*
X246126000Y-90424000D01*
X246380000Y-90170000D02*
X246126000Y-90424000D01*
X248158000Y-90424000D02*
X247904000Y-90678000D01*
X248158000Y-90424000D02*
X247904000Y-90170000D01*
X246126000Y-90424000D02*
X248158000Y-90424000D01*
D11*
X228314285Y-91130380D02*
X228314285Y-90130380D01*
X228314285Y-90606571D02*
X228885714Y-90606571D01*
X228885714Y-91130380D02*
X228885714Y-90130380D01*
X224845523Y-91130380D02*
X224369333Y-91130380D01*
X224369333Y-90130380D01*
X248888285Y-91130380D02*
X248888285Y-90130380D01*
X248888285Y-90606571D02*
X249459714Y-90606571D01*
X249459714Y-91130380D02*
X249459714Y-90130380D01*
X245419523Y-91130380D02*
X244943333Y-91130380D01*
X244943333Y-90130380D01*
D10*
X225175142Y-93230000D02*
X225032285Y-93158571D01*
X224818000Y-93158571D01*
X224603714Y-93230000D01*
X224460857Y-93372857D01*
X224389428Y-93515714D01*
X224318000Y-93801428D01*
X224318000Y-94015714D01*
X224389428Y-94301428D01*
X224460857Y-94444285D01*
X224603714Y-94587142D01*
X224818000Y-94658571D01*
X224960857Y-94658571D01*
X225175142Y-94587142D01*
X225246571Y-94515714D01*
X225246571Y-94015714D01*
X224960857Y-94015714D01*
X225818000Y-94230000D02*
X226532285Y-94230000D01*
X225675142Y-94658571D02*
X226175142Y-93158571D01*
X226675142Y-94658571D01*
X227175142Y-94658571D02*
X227175142Y-93158571D01*
X227889428Y-94658571D02*
X227889428Y-93158571D01*
X228746571Y-94658571D01*
X228746571Y-93158571D01*
X240147428Y-95928571D02*
X239747428Y-95214285D01*
X239461714Y-95928571D02*
X239461714Y-94428571D01*
X239918857Y-94428571D01*
X240033142Y-94500000D01*
X240090285Y-94571428D01*
X240147428Y-94714285D01*
X240147428Y-94928571D01*
X240090285Y-95071428D01*
X240033142Y-95142857D01*
X239918857Y-95214285D01*
X239461714Y-95214285D01*
X236747142Y-95928571D02*
X236747142Y-94428571D01*
X237318571Y-95357142D02*
X238232857Y-95357142D01*
X233953142Y-95928571D02*
X233953142Y-94428571D01*
X234524571Y-95357142D02*
X235438857Y-95357142D01*
X234981714Y-95928571D02*
X234981714Y-94785714D01*
X232470285Y-94500000D02*
X232356000Y-94428571D01*
X232184571Y-94428571D01*
X232013142Y-94500000D01*
X231898857Y-94642857D01*
X231841714Y-94785714D01*
X231784571Y-95071428D01*
X231784571Y-95285714D01*
X231841714Y-95571428D01*
X231898857Y-95714285D01*
X232013142Y-95857142D01*
X232184571Y-95928571D01*
X232298857Y-95928571D01*
X232470285Y-95857142D01*
X232527428Y-95785714D01*
X232527428Y-95285714D01*
X232298857Y-95285714D01*
X230600285Y-65591428D02*
X231171714Y-65591428D01*
X231228857Y-64877142D01*
X231171714Y-64948571D01*
X231057428Y-65020000D01*
X230771714Y-65020000D01*
X230657428Y-64948571D01*
X230600285Y-64877142D01*
X230543142Y-64734285D01*
X230543142Y-64377142D01*
X230600285Y-64234285D01*
X230657428Y-64162857D01*
X230771714Y-64091428D01*
X231057428Y-64091428D01*
X231171714Y-64162857D01*
X231228857Y-64234285D01*
X228460285Y-65591428D02*
X228231714Y-65591428D01*
X228117428Y-65520000D01*
X228003142Y-65377142D01*
X227946000Y-65091428D01*
X227946000Y-64591428D01*
X228003142Y-64305714D01*
X228117428Y-64162857D01*
X228231714Y-64091428D01*
X228460285Y-64091428D01*
X228574571Y-64162857D01*
X228688857Y-64305714D01*
X228746000Y-64591428D01*
X228746000Y-65091428D01*
X228688857Y-65377142D01*
X228574571Y-65520000D01*
X228460285Y-65591428D01*
X225491714Y-65520000D02*
X225606000Y-65591428D01*
X225777428Y-65591428D01*
X225948857Y-65520000D01*
X226063142Y-65377142D01*
X226120285Y-65234285D01*
X226177428Y-64948571D01*
X226177428Y-64734285D01*
X226120285Y-64448571D01*
X226063142Y-64305714D01*
X225948857Y-64162857D01*
X225777428Y-64091428D01*
X225663142Y-64091428D01*
X225491714Y-64162857D01*
X225434571Y-64234285D01*
X225434571Y-64734285D01*
X225663142Y-64734285D01*
X244677714Y-93383571D02*
X244677714Y-91883571D01*
X245034857Y-91883571D01*
X245249142Y-91955000D01*
X245392000Y-92097857D01*
X245463428Y-92240714D01*
X245534857Y-92526428D01*
X245534857Y-92740714D01*
X245463428Y-93026428D01*
X245392000Y-93169285D01*
X245249142Y-93312142D01*
X245034857Y-93383571D01*
X244677714Y-93383571D01*
X246177714Y-92597857D02*
X246677714Y-92597857D01*
X246892000Y-93383571D02*
X246177714Y-93383571D01*
X246177714Y-91883571D01*
X246892000Y-91883571D01*
X247463428Y-92955000D02*
X248177714Y-92955000D01*
X247320571Y-93383571D02*
X247820571Y-91883571D01*
X248320571Y-93383571D01*
X248820571Y-93383571D02*
X248820571Y-91883571D01*
X249177714Y-91883571D01*
X249392000Y-91955000D01*
X249534857Y-92097857D01*
X249606285Y-92240714D01*
X249677714Y-92526428D01*
X249677714Y-92740714D01*
X249606285Y-93026428D01*
X249534857Y-93169285D01*
X249392000Y-93312142D01*
X249177714Y-93383571D01*
X248820571Y-93383571D01*
X244392000Y-94433571D02*
X245392000Y-94433571D01*
X244392000Y-95933571D01*
X245392000Y-95933571D01*
X246249142Y-94433571D02*
X246534857Y-94433571D01*
X246677714Y-94505000D01*
X246820571Y-94647857D01*
X246892000Y-94933571D01*
X246892000Y-95433571D01*
X246820571Y-95719285D01*
X246677714Y-95862142D01*
X246534857Y-95933571D01*
X246249142Y-95933571D01*
X246106285Y-95862142D01*
X245963428Y-95719285D01*
X245892000Y-95433571D01*
X245892000Y-94933571D01*
X245963428Y-94647857D01*
X246106285Y-94505000D01*
X246249142Y-94433571D01*
X247534857Y-95933571D02*
X247534857Y-94433571D01*
X248392000Y-95933571D01*
X248392000Y-94433571D01*
X249106285Y-95147857D02*
X249606285Y-95147857D01*
X249820571Y-95933571D02*
X249106285Y-95933571D01*
X249106285Y-94433571D01*
X249820571Y-94433571D01*
D12*
%TO.C,RV2*%
X244607000Y-89780000D02*
X244607000Y-70490000D01*
X249677000Y-89780000D02*
X249677000Y-70490000D01*
X244607000Y-89780000D02*
X249677000Y-89780000D01*
X244607000Y-70490000D02*
X249677000Y-70490000D01*
X245843000Y-91300000D02*
X245843000Y-89781000D01*
X248442000Y-91300000D02*
X248442000Y-89781000D01*
X245843000Y-91300000D02*
X248442000Y-91300000D01*
X245843000Y-89781000D02*
X248442000Y-89781000D01*
X247142000Y-91300000D02*
X247142000Y-90541000D01*
%TO.C,U1*%
X236793000Y-86985000D02*
X240243000Y-86985000D01*
X236793000Y-86985000D02*
X234843000Y-86985000D01*
X236793000Y-78115000D02*
X238743000Y-78115000D01*
X236793000Y-78115000D02*
X234843000Y-78115000D01*
%TO.C,R13*%
X234976936Y-68045000D02*
X235431064Y-68045000D01*
X234976936Y-66575000D02*
X235431064Y-66575000D01*
%TO.C,C3*%
X241525248Y-68045000D02*
X242047752Y-68045000D01*
X241525248Y-66575000D02*
X242047752Y-66575000D01*
%TO.C,U2*%
X233680000Y-69830000D02*
X230230000Y-69830000D01*
X233680000Y-69830000D02*
X235630000Y-69830000D01*
X233680000Y-74950000D02*
X231730000Y-74950000D01*
X233680000Y-74950000D02*
X235630000Y-74950000D01*
%TO.C,RV1*%
X224033000Y-89780000D02*
X224033000Y-70490000D01*
X229103000Y-89780000D02*
X229103000Y-70490000D01*
X224033000Y-89780000D02*
X229103000Y-89780000D01*
X224033000Y-70490000D02*
X229103000Y-70490000D01*
X225269000Y-91300000D02*
X225269000Y-89781000D01*
X227868000Y-91300000D02*
X227868000Y-89781000D01*
X225269000Y-91300000D02*
X227868000Y-91300000D01*
X225269000Y-89781000D02*
X227868000Y-89781000D01*
X226568000Y-91300000D02*
X226568000Y-90541000D01*
%TO.C,R11*%
X241835000Y-79798936D02*
X241835000Y-80253064D01*
X243305000Y-79798936D02*
X243305000Y-80253064D01*
%TO.C,R10*%
X241003064Y-88165000D02*
X240548936Y-88165000D01*
X241003064Y-89635000D02*
X240548936Y-89635000D01*
%TO.C,R9*%
X241835000Y-85100936D02*
X241835000Y-85555064D01*
X243305000Y-85100936D02*
X243305000Y-85555064D01*
%TO.C,R8*%
X236717064Y-88165000D02*
X236262936Y-88165000D01*
X236717064Y-89635000D02*
X236262936Y-89635000D01*
%TO.C,R7*%
X232367064Y-88165000D02*
X231912936Y-88165000D01*
X232367064Y-89635000D02*
X231912936Y-89635000D01*
%TO.C,R6*%
X234939064Y-75719000D02*
X234484936Y-75719000D01*
X234939064Y-77189000D02*
X234484936Y-77189000D01*
%TO.C,R5*%
X231875000Y-85555064D02*
X231875000Y-85100936D01*
X230405000Y-85555064D02*
X230405000Y-85100936D01*
%TO.C,R4*%
X231875000Y-77681064D02*
X231875000Y-77226936D01*
X230405000Y-77681064D02*
X230405000Y-77226936D01*
%TO.C,R3*%
X241580936Y-65759000D02*
X242035064Y-65759000D01*
X241580936Y-64289000D02*
X242035064Y-64289000D01*
%TO.C,R2*%
X242051064Y-71147000D02*
X241596936Y-71147000D01*
X242051064Y-72617000D02*
X241596936Y-72617000D01*
%TO.C,R1*%
X242051064Y-68861000D02*
X241596936Y-68861000D01*
X242051064Y-70331000D02*
X241596936Y-70331000D01*
%TO.C,J2*%
X224476000Y-68640000D02*
X224476000Y-67310000D01*
X225806000Y-68640000D02*
X224476000Y-68640000D01*
X227076000Y-68640000D02*
X227076000Y-65980000D01*
X227076000Y-65980000D02*
X232216000Y-65980000D01*
X227076000Y-68640000D02*
X232216000Y-68640000D01*
X232216000Y-68640000D02*
X232216000Y-65980000D01*
%TO.C,J1*%
X230826000Y-94040000D02*
X230826000Y-92710000D01*
X232156000Y-94040000D02*
X230826000Y-94040000D01*
X233426000Y-94040000D02*
X233426000Y-91380000D01*
X233426000Y-91380000D02*
X241106000Y-91380000D01*
X233426000Y-94040000D02*
X241106000Y-94040000D01*
X241106000Y-94040000D02*
X241106000Y-91380000D01*
%TO.C,C2*%
X240566752Y-75719000D02*
X240044248Y-75719000D01*
X240566752Y-77189000D02*
X240044248Y-77189000D01*
%TO.C,C1*%
X235443752Y-64289000D02*
X234921248Y-64289000D01*
X235443752Y-65759000D02*
X234921248Y-65759000D01*
%TO.C,RV2*%
D13*
X247308761Y-70048380D02*
X246975428Y-69572190D01*
X246737333Y-70048380D02*
X246737333Y-69048380D01*
X247118285Y-69048380D01*
X247213523Y-69096000D01*
X247261142Y-69143619D01*
X247308761Y-69238857D01*
X247308761Y-69381714D01*
X247261142Y-69476952D01*
X247213523Y-69524571D01*
X247118285Y-69572190D01*
X246737333Y-69572190D01*
X247594476Y-69048380D02*
X247927809Y-70048380D01*
X248261142Y-69048380D01*
X248546857Y-69143619D02*
X248594476Y-69096000D01*
X248689714Y-69048380D01*
X248927809Y-69048380D01*
X249023047Y-69096000D01*
X249070666Y-69143619D01*
X249118285Y-69238857D01*
X249118285Y-69334095D01*
X249070666Y-69476952D01*
X248499238Y-70048380D01*
X249118285Y-70048380D01*
%TO.C,U1*%
X231862380Y-82803904D02*
X232671904Y-82803904D01*
X232767142Y-82756285D01*
X232814761Y-82708666D01*
X232862380Y-82613428D01*
X232862380Y-82422952D01*
X232814761Y-82327714D01*
X232767142Y-82280095D01*
X232671904Y-82232476D01*
X231862380Y-82232476D01*
X232862380Y-81232476D02*
X232862380Y-81803904D01*
X232862380Y-81518190D02*
X231862380Y-81518190D01*
X232005238Y-81613428D01*
X232100476Y-81708666D01*
X232148095Y-81803904D01*
%TO.C,R13*%
X237863142Y-67762380D02*
X237529809Y-67286190D01*
X237291714Y-67762380D02*
X237291714Y-66762380D01*
X237672666Y-66762380D01*
X237767904Y-66810000D01*
X237815523Y-66857619D01*
X237863142Y-66952857D01*
X237863142Y-67095714D01*
X237815523Y-67190952D01*
X237767904Y-67238571D01*
X237672666Y-67286190D01*
X237291714Y-67286190D01*
X238815523Y-67762380D02*
X238244095Y-67762380D01*
X238529809Y-67762380D02*
X238529809Y-66762380D01*
X238434571Y-66905238D01*
X238339333Y-67000476D01*
X238244095Y-67048095D01*
X239148857Y-66762380D02*
X239767904Y-66762380D01*
X239434571Y-67143333D01*
X239577428Y-67143333D01*
X239672666Y-67190952D01*
X239720285Y-67238571D01*
X239767904Y-67333809D01*
X239767904Y-67571904D01*
X239720285Y-67667142D01*
X239672666Y-67714761D01*
X239577428Y-67762380D01*
X239291714Y-67762380D01*
X239196476Y-67714761D01*
X239148857Y-67667142D01*
%TO.C,C3*%
X244392333Y-67667142D02*
X244344714Y-67714761D01*
X244201857Y-67762380D01*
X244106619Y-67762380D01*
X243963761Y-67714761D01*
X243868523Y-67619523D01*
X243820904Y-67524285D01*
X243773285Y-67333809D01*
X243773285Y-67190952D01*
X243820904Y-67000476D01*
X243868523Y-66905238D01*
X243963761Y-66810000D01*
X244106619Y-66762380D01*
X244201857Y-66762380D01*
X244344714Y-66810000D01*
X244392333Y-66857619D01*
X244725666Y-66762380D02*
X245344714Y-66762380D01*
X245011380Y-67143333D01*
X245154238Y-67143333D01*
X245249476Y-67190952D01*
X245297095Y-67238571D01*
X245344714Y-67333809D01*
X245344714Y-67571904D01*
X245297095Y-67667142D01*
X245249476Y-67714761D01*
X245154238Y-67762380D01*
X244868523Y-67762380D01*
X244773285Y-67714761D01*
X244725666Y-67667142D01*
%TO.C,U2*%
X232918095Y-68540380D02*
X232918095Y-69349904D01*
X232965714Y-69445142D01*
X233013333Y-69492761D01*
X233108571Y-69540380D01*
X233299047Y-69540380D01*
X233394285Y-69492761D01*
X233441904Y-69445142D01*
X233489523Y-69349904D01*
X233489523Y-68540380D01*
X233918095Y-68635619D02*
X233965714Y-68588000D01*
X234060952Y-68540380D01*
X234299047Y-68540380D01*
X234394285Y-68588000D01*
X234441904Y-68635619D01*
X234489523Y-68730857D01*
X234489523Y-68826095D01*
X234441904Y-68968952D01*
X233870476Y-69540380D01*
X234489523Y-69540380D01*
%TO.C,RV1*%
X225972761Y-70048380D02*
X225639428Y-69572190D01*
X225401333Y-70048380D02*
X225401333Y-69048380D01*
X225782285Y-69048380D01*
X225877523Y-69096000D01*
X225925142Y-69143619D01*
X225972761Y-69238857D01*
X225972761Y-69381714D01*
X225925142Y-69476952D01*
X225877523Y-69524571D01*
X225782285Y-69572190D01*
X225401333Y-69572190D01*
X226258476Y-69048380D02*
X226591809Y-70048380D01*
X226925142Y-69048380D01*
X227782285Y-70048380D02*
X227210857Y-70048380D01*
X227496571Y-70048380D02*
X227496571Y-69048380D01*
X227401333Y-69191238D01*
X227306095Y-69286476D01*
X227210857Y-69334095D01*
%TO.C,R11*%
X243530380Y-77350857D02*
X243054190Y-77684190D01*
X243530380Y-77922285D02*
X242530380Y-77922285D01*
X242530380Y-77541333D01*
X242578000Y-77446095D01*
X242625619Y-77398476D01*
X242720857Y-77350857D01*
X242863714Y-77350857D01*
X242958952Y-77398476D01*
X243006571Y-77446095D01*
X243054190Y-77541333D01*
X243054190Y-77922285D01*
X243530380Y-76398476D02*
X243530380Y-76969904D01*
X243530380Y-76684190D02*
X242530380Y-76684190D01*
X242673238Y-76779428D01*
X242768476Y-76874666D01*
X242816095Y-76969904D01*
X243530380Y-75446095D02*
X243530380Y-76017523D01*
X243530380Y-75731809D02*
X242530380Y-75731809D01*
X242673238Y-75827047D01*
X242768476Y-75922285D01*
X242816095Y-76017523D01*
%TO.C,R10*%
X240133142Y-91002380D02*
X239799809Y-90526190D01*
X239561714Y-91002380D02*
X239561714Y-90002380D01*
X239942666Y-90002380D01*
X240037904Y-90050000D01*
X240085523Y-90097619D01*
X240133142Y-90192857D01*
X240133142Y-90335714D01*
X240085523Y-90430952D01*
X240037904Y-90478571D01*
X239942666Y-90526190D01*
X239561714Y-90526190D01*
X241085523Y-91002380D02*
X240514095Y-91002380D01*
X240799809Y-91002380D02*
X240799809Y-90002380D01*
X240704571Y-90145238D01*
X240609333Y-90240476D01*
X240514095Y-90288095D01*
X241704571Y-90002380D02*
X241799809Y-90002380D01*
X241895047Y-90050000D01*
X241942666Y-90097619D01*
X241990285Y-90192857D01*
X242037904Y-90383333D01*
X242037904Y-90621428D01*
X241990285Y-90811904D01*
X241942666Y-90907142D01*
X241895047Y-90954761D01*
X241799809Y-91002380D01*
X241704571Y-91002380D01*
X241609333Y-90954761D01*
X241561714Y-90907142D01*
X241514095Y-90811904D01*
X241466476Y-90621428D01*
X241466476Y-90383333D01*
X241514095Y-90192857D01*
X241561714Y-90097619D01*
X241609333Y-90050000D01*
X241704571Y-90002380D01*
%TO.C,R9*%
X244038380Y-88558666D02*
X243562190Y-88892000D01*
X244038380Y-89130095D02*
X243038380Y-89130095D01*
X243038380Y-88749142D01*
X243086000Y-88653904D01*
X243133619Y-88606285D01*
X243228857Y-88558666D01*
X243371714Y-88558666D01*
X243466952Y-88606285D01*
X243514571Y-88653904D01*
X243562190Y-88749142D01*
X243562190Y-89130095D01*
X244038380Y-88082476D02*
X244038380Y-87892000D01*
X243990761Y-87796761D01*
X243943142Y-87749142D01*
X243800285Y-87653904D01*
X243609809Y-87606285D01*
X243228857Y-87606285D01*
X243133619Y-87653904D01*
X243086000Y-87701523D01*
X243038380Y-87796761D01*
X243038380Y-87987238D01*
X243086000Y-88082476D01*
X243133619Y-88130095D01*
X243228857Y-88177714D01*
X243466952Y-88177714D01*
X243562190Y-88130095D01*
X243609809Y-88082476D01*
X243657428Y-87987238D01*
X243657428Y-87796761D01*
X243609809Y-87701523D01*
X243562190Y-87653904D01*
X243466952Y-87606285D01*
%TO.C,R8*%
X236323333Y-91002380D02*
X235990000Y-90526190D01*
X235751904Y-91002380D02*
X235751904Y-90002380D01*
X236132857Y-90002380D01*
X236228095Y-90050000D01*
X236275714Y-90097619D01*
X236323333Y-90192857D01*
X236323333Y-90335714D01*
X236275714Y-90430952D01*
X236228095Y-90478571D01*
X236132857Y-90526190D01*
X235751904Y-90526190D01*
X236894761Y-90430952D02*
X236799523Y-90383333D01*
X236751904Y-90335714D01*
X236704285Y-90240476D01*
X236704285Y-90192857D01*
X236751904Y-90097619D01*
X236799523Y-90050000D01*
X236894761Y-90002380D01*
X237085238Y-90002380D01*
X237180476Y-90050000D01*
X237228095Y-90097619D01*
X237275714Y-90192857D01*
X237275714Y-90240476D01*
X237228095Y-90335714D01*
X237180476Y-90383333D01*
X237085238Y-90430952D01*
X236894761Y-90430952D01*
X236799523Y-90478571D01*
X236751904Y-90526190D01*
X236704285Y-90621428D01*
X236704285Y-90811904D01*
X236751904Y-90907142D01*
X236799523Y-90954761D01*
X236894761Y-91002380D01*
X237085238Y-91002380D01*
X237180476Y-90954761D01*
X237228095Y-90907142D01*
X237275714Y-90811904D01*
X237275714Y-90621428D01*
X237228095Y-90526190D01*
X237180476Y-90478571D01*
X237085238Y-90430952D01*
%TO.C,R7*%
X231973333Y-91002380D02*
X231640000Y-90526190D01*
X231401904Y-91002380D02*
X231401904Y-90002380D01*
X231782857Y-90002380D01*
X231878095Y-90050000D01*
X231925714Y-90097619D01*
X231973333Y-90192857D01*
X231973333Y-90335714D01*
X231925714Y-90430952D01*
X231878095Y-90478571D01*
X231782857Y-90526190D01*
X231401904Y-90526190D01*
X232306666Y-90002380D02*
X232973333Y-90002380D01*
X232544761Y-91002380D01*
%TO.C,R6*%
X237323333Y-76906380D02*
X236990000Y-76430190D01*
X236751904Y-76906380D02*
X236751904Y-75906380D01*
X237132857Y-75906380D01*
X237228095Y-75954000D01*
X237275714Y-76001619D01*
X237323333Y-76096857D01*
X237323333Y-76239714D01*
X237275714Y-76334952D01*
X237228095Y-76382571D01*
X237132857Y-76430190D01*
X236751904Y-76430190D01*
X238180476Y-75906380D02*
X237990000Y-75906380D01*
X237894761Y-75954000D01*
X237847142Y-76001619D01*
X237751904Y-76144476D01*
X237704285Y-76334952D01*
X237704285Y-76715904D01*
X237751904Y-76811142D01*
X237799523Y-76858761D01*
X237894761Y-76906380D01*
X238085238Y-76906380D01*
X238180476Y-76858761D01*
X238228095Y-76811142D01*
X238275714Y-76715904D01*
X238275714Y-76477809D01*
X238228095Y-76382571D01*
X238180476Y-76334952D01*
X238085238Y-76287333D01*
X237894761Y-76287333D01*
X237799523Y-76334952D01*
X237751904Y-76382571D01*
X237704285Y-76477809D01*
%TO.C,R5*%
X230830380Y-82716666D02*
X230354190Y-83050000D01*
X230830380Y-83288095D02*
X229830380Y-83288095D01*
X229830380Y-82907142D01*
X229878000Y-82811904D01*
X229925619Y-82764285D01*
X230020857Y-82716666D01*
X230163714Y-82716666D01*
X230258952Y-82764285D01*
X230306571Y-82811904D01*
X230354190Y-82907142D01*
X230354190Y-83288095D01*
X229830380Y-81811904D02*
X229830380Y-82288095D01*
X230306571Y-82335714D01*
X230258952Y-82288095D01*
X230211333Y-82192857D01*
X230211333Y-81954761D01*
X230258952Y-81859523D01*
X230306571Y-81811904D01*
X230401809Y-81764285D01*
X230639904Y-81764285D01*
X230735142Y-81811904D01*
X230782761Y-81859523D01*
X230830380Y-81954761D01*
X230830380Y-82192857D01*
X230782761Y-82288095D01*
X230735142Y-82335714D01*
%TO.C,R4*%
X230830380Y-80430666D02*
X230354190Y-80764000D01*
X230830380Y-81002095D02*
X229830380Y-81002095D01*
X229830380Y-80621142D01*
X229878000Y-80525904D01*
X229925619Y-80478285D01*
X230020857Y-80430666D01*
X230163714Y-80430666D01*
X230258952Y-80478285D01*
X230306571Y-80525904D01*
X230354190Y-80621142D01*
X230354190Y-81002095D01*
X230163714Y-79573523D02*
X230830380Y-79573523D01*
X229782761Y-79811619D02*
X230497047Y-80049714D01*
X230497047Y-79430666D01*
%TO.C,R3*%
X244419333Y-65476380D02*
X244086000Y-65000190D01*
X243847904Y-65476380D02*
X243847904Y-64476380D01*
X244228857Y-64476380D01*
X244324095Y-64524000D01*
X244371714Y-64571619D01*
X244419333Y-64666857D01*
X244419333Y-64809714D01*
X244371714Y-64904952D01*
X244324095Y-64952571D01*
X244228857Y-65000190D01*
X243847904Y-65000190D01*
X244752666Y-64476380D02*
X245371714Y-64476380D01*
X245038380Y-64857333D01*
X245181238Y-64857333D01*
X245276476Y-64904952D01*
X245324095Y-64952571D01*
X245371714Y-65047809D01*
X245371714Y-65285904D01*
X245324095Y-65381142D01*
X245276476Y-65428761D01*
X245181238Y-65476380D01*
X244895523Y-65476380D01*
X244800285Y-65428761D01*
X244752666Y-65381142D01*
%TO.C,R2*%
X238593333Y-72334380D02*
X238260000Y-71858190D01*
X238021904Y-72334380D02*
X238021904Y-71334380D01*
X238402857Y-71334380D01*
X238498095Y-71382000D01*
X238545714Y-71429619D01*
X238593333Y-71524857D01*
X238593333Y-71667714D01*
X238545714Y-71762952D01*
X238498095Y-71810571D01*
X238402857Y-71858190D01*
X238021904Y-71858190D01*
X238974285Y-71429619D02*
X239021904Y-71382000D01*
X239117142Y-71334380D01*
X239355238Y-71334380D01*
X239450476Y-71382000D01*
X239498095Y-71429619D01*
X239545714Y-71524857D01*
X239545714Y-71620095D01*
X239498095Y-71762952D01*
X238926666Y-72334380D01*
X239545714Y-72334380D01*
%TO.C,R1*%
X238593333Y-70048380D02*
X238260000Y-69572190D01*
X238021904Y-70048380D02*
X238021904Y-69048380D01*
X238402857Y-69048380D01*
X238498095Y-69096000D01*
X238545714Y-69143619D01*
X238593333Y-69238857D01*
X238593333Y-69381714D01*
X238545714Y-69476952D01*
X238498095Y-69524571D01*
X238402857Y-69572190D01*
X238021904Y-69572190D01*
X239545714Y-70048380D02*
X238974285Y-70048380D01*
X239260000Y-70048380D02*
X239260000Y-69048380D01*
X239164761Y-69191238D01*
X239069523Y-69286476D01*
X238974285Y-69334095D01*
%TO.C,J2*%
X228520666Y-68794380D02*
X228520666Y-69508666D01*
X228473047Y-69651523D01*
X228377809Y-69746761D01*
X228234952Y-69794380D01*
X228139714Y-69794380D01*
X228949238Y-68889619D02*
X228996857Y-68842000D01*
X229092095Y-68794380D01*
X229330190Y-68794380D01*
X229425428Y-68842000D01*
X229473047Y-68889619D01*
X229520666Y-68984857D01*
X229520666Y-69080095D01*
X229473047Y-69222952D01*
X228901619Y-69794380D01*
X229520666Y-69794380D01*
%TO.C,J1*%
X241982666Y-91400380D02*
X241982666Y-92114666D01*
X241935047Y-92257523D01*
X241839809Y-92352761D01*
X241696952Y-92400380D01*
X241601714Y-92400380D01*
X242982666Y-92400380D02*
X242411238Y-92400380D01*
X242696952Y-92400380D02*
X242696952Y-91400380D01*
X242601714Y-91543238D01*
X242506476Y-91638476D01*
X242411238Y-91686095D01*
%TO.C,C2*%
X240117333Y-75287142D02*
X240069714Y-75334761D01*
X239926857Y-75382380D01*
X239831619Y-75382380D01*
X239688761Y-75334761D01*
X239593523Y-75239523D01*
X239545904Y-75144285D01*
X239498285Y-74953809D01*
X239498285Y-74810952D01*
X239545904Y-74620476D01*
X239593523Y-74525238D01*
X239688761Y-74430000D01*
X239831619Y-74382380D01*
X239926857Y-74382380D01*
X240069714Y-74430000D01*
X240117333Y-74477619D01*
X240498285Y-74477619D02*
X240545904Y-74430000D01*
X240641142Y-74382380D01*
X240879238Y-74382380D01*
X240974476Y-74430000D01*
X241022095Y-74477619D01*
X241069714Y-74572857D01*
X241069714Y-74668095D01*
X241022095Y-74810952D01*
X240450666Y-75382380D01*
X241069714Y-75382380D01*
%TO.C,C1*%
X237831333Y-65381142D02*
X237783714Y-65428761D01*
X237640857Y-65476380D01*
X237545619Y-65476380D01*
X237402761Y-65428761D01*
X237307523Y-65333523D01*
X237259904Y-65238285D01*
X237212285Y-65047809D01*
X237212285Y-64904952D01*
X237259904Y-64714476D01*
X237307523Y-64619238D01*
X237402761Y-64524000D01*
X237545619Y-64476380D01*
X237640857Y-64476380D01*
X237783714Y-64524000D01*
X237831333Y-64571619D01*
X238783714Y-65476380D02*
X238212285Y-65476380D01*
X238498000Y-65476380D02*
X238498000Y-64476380D01*
X238402761Y-64619238D01*
X238307523Y-64714476D01*
X238212285Y-64762095D01*
%TD*%
M02*
